[
	{
		"name" : "_id",
		"type" : "RECORD",
		"fields": [
			{
				"name":"oid",
				"type":"STRING"
			}
		]
	},
	{
		"name" : "plugin_id",
		"type" : "RECORD",
		"fields": [
			{
				"name":"oid",
				"type":"STRING"
			}
		]
	},
	{
		"name" : "pid",
		"type" : "RECORD",
		"fields": [
			{
				"name":"oid",
				"type":"STRING"
			}
		]
	},
	{
		"name" : "gid",
		"type":"STRING"
	},
	{
		"name" : "attempts",
		"type" : "FLOAT"
	},
	{
		"name" : "act",
		"type" : "BOOLEAN"
	},
	{
		"name" : "submits",
		"type" : "FLOAT"
	},
	{
		"name" : "score",
		"type" : "FLOAT"
	},
	{
		"name" : "marks",
		"type" : "FLOAT"
	},
	{
		"name" : "all_correct_count",
		"type" : "FLOAT"
	},
	{
		"name" : "rank",
		"type" : "FLOAT"
	},
	{
		"name" : "createdAt",
		"type" : "RECORD",
		"fields": [
			{
				"name":"date",
				"type":"STRING"
			}
		]
	},
	{
		"name" : "updatedAt",
		"type" : "RECORD",
		"fields": [
			{
				"name":"date",
				"type":"STRING"
			}
		]
	}
]