[
	{
		"name" : "_id",
		"type" : "RECORD",
		"fields": [
			{
				"name":"oid",
				"type":"STRING"
			}
		]
	},
	{
		"name" : "test_id",
		"type" : "RECORD",
		"fields": [
			{
				"name":"oid",
				"type":"STRING"
			}
		]
	},
	{
		"name" : "ques_id",
		"type" : "RECORD",
		"fields": [
			{
				"name":"oid",
				"type":"STRING"
			}
		]
	},
	{
		"name" : "act",
		"type":"BOOLEAN"
	},
	{
		"name" : "key",
		"type" : "FLOAT"
	},
	{
		"name" : "marks",
		"type" : "FLOAT"
	},
	{
		"name" : "ineg",
		"type" : "BOOLEAN"
	},
	{
		"name" : "negm",
		"type" : "FLOAT"
	},
	{
		"name" : "createdAt",
		"type" : "RECORD",
		"fields": [
			{
				"name":"date",
				"type":"STRING"
			}
		]
	},
	{
		"name" : "updatedAt",
		"type" : "RECORD",
		"fields": [
			{
				"name":"date",
				"type":"STRING"
			}
		]
	}
]