[
	{
		"name" : "_id",
		"type" : "RECORD",
		"fields": [
			{
				"name":"oid",
				"type":"STRING"
			}
		]
	},
	{
		"name" : "test_id",
		"type" : "RECORD",
		"fields": [
			{
				"name":"oid",
				"type":"STRING"
			}
		]
	},
	{
		"name" : "user_test_id",
		"type" : "RECORD",
		"fields": [
			{
				"name":"oid",
				"type":"STRING"
			}
		]
	},
	{
		"name" : "ques_id",
		"type" : "RECORD",
		"fields": [
			{
				"name":"oid",
				"type":"STRING"
			}
		]
	},
	{
		"name" : "plugin_id",
		"type" : "RECORD",
		"fields": [
			{
				"name":"oid",
				"type":"STRING"
			}
		]
	},
	{
		"name" : "gid",
		"type":"STRING"
	},
	{
		"name" : "ques_key",
		"type" : "FLOAT"
	},
	{
		"name" : "ans_no",
		"type" : "FLOAT"
	},
	{
		"name" : "is_attempted",
		"type" : "BOOLEAN"
	},
	{
		"name" : "is_correct",
		"type" : "BOOLEAN"
	},
	{
		"name" : "marks_obtained",
		"type" : "FLOAT"
	},
	{
		"name" : "ineg",
		"type" : "BOOLEAN"
	},
	{
		"name" : "negm",
		"type" : "FLOAT"
	},
	{
		"name" : "createdAt",
		"type" : "RECORD",
		"fields": [
			{
				"name":"date",
				"type":"STRING"
			}
		]
	},
	{
		"name" : "updatedAt",
		"type" : "RECORD",
		"fields": [
			{
				"name":"date",
				"type":"STRING"
			}
		]
	}
]